(module bornier_2P (layer F.Cu) (tedit 5E52AAA4)
  (fp_text reference REF** (at 2.5 3) (layer F.SilkS)
    (effects (font (size 1 1) (thickness 0.15)))
  )
  (fp_text value bornier_2P (at 2.5 -3.7846) (layer F.Fab)
    (effects (font (size 1 1) (thickness 0.15)))
  )
  (fp_line (start -2.5 4) (end 7.5 4) (layer F.CrtYd) (width 0.12))
  (fp_line (start 7.5 4) (end 7.5 -5) (layer F.CrtYd) (width 0.12))
  (fp_line (start 7.5 -5) (end -2.5 -5) (layer F.CrtYd) (width 0.12))
  (fp_line (start -2.5 -5) (end -2.5 4) (layer F.CrtYd) (width 0.12))
  (fp_line (start -2.5 -5) (end -2.5 4) (layer F.SilkS) (width 0.12))
  (fp_line (start -2.5 4) (end 7.5 4) (layer F.SilkS) (width 0.12))
  (fp_line (start 7.5 4) (end 7.5 -5) (layer F.SilkS) (width 0.12))
  (fp_line (start 7.5 -5) (end -2.5 -5) (layer F.SilkS) (width 0.12))
  (pad 1 thru_hole circle (at 0 0) (size 3 3) (drill 1.3) (layers *.Cu *.Mask))
  (pad 2 thru_hole circle (at 5 0) (size 3 3) (drill 1.3) (layers *.Cu *.Mask))
)
