EESchema Schematic File Version 4
EELAYER 30 0
EELAYER END
$Descr A4 11693 8268
encoding utf-8
Sheet 1 1
Title "DCC Remotre Control"
Date "2020-05-08"
Rev "1.0"
Comp ""
Comment1 "Guillaume Duc <guillaume@guiduc.org>"
Comment2 ""
Comment3 ""
Comment4 ""
$EndDescr
$Comp
L custom:STM32-H405 U1
U 1 1 5E9AA628
P 3000 3750
F 0 "U1" H 3000 5225 50  0000 C CNN
F 1 "STM32-H405" H 3000 5134 50  0000 C CNN
F 2 "custom:STM32_H405" H 3100 2400 50  0001 C CNN
F 3 "" H 3100 2400 50  0001 C CNN
	1    3000 3750
	1    0    0    -1  
$EndComp
$Comp
L Device:Rotary_Encoder_Switch SW7
U 1 1 5E9AA91F
P 7750 2950
F 0 "SW7" H 7750 3317 50  0000 C CNN
F 1 "Rotary_Encoder_Switch" H 7750 3226 50  0000 C CNN
F 2 "custom:318-ENC130175F-12PS" H 7600 3110 50  0001 C CNN
F 3 "~" H 7750 3210 50  0001 C CNN
	1    7750 2950
	1    0    0    -1  
$EndComp
$Comp
L Interface_CAN_LIN:MCP2562-E-P U4
U 1 1 5E9AF01B
P 8050 4450
F 0 "U4" H 8400 4100 50  0000 C CNN
F 1 "MCP2562-E-P" H 8050 4450 50  0000 C CNN
F 2 "Package_DIP:DIP-8_W7.62mm_Socket" H 8050 3950 50  0001 C CIN
F 3 "http://ww1.microchip.com/downloads/en/DeviceDoc/25167A.pdf" H 8050 4450 50  0001 C CNN
	1    8050 4450
	1    0    0    -1  
$EndComp
$Comp
L Connector:8P8C J1
U 1 1 5E9AF71A
P 10050 4750
F 0 "J1" H 9720 4754 50  0000 R CNN
F 1 "8P8C" H 9720 4845 50  0000 R CNN
F 2 "custom:Connector_8P8C" V 10050 4775 50  0001 C CNN
F 3 "~" V 10050 4775 50  0001 C CNN
	1    10050 4750
	-1   0    0    1   
$EndComp
$Comp
L Memory_EEPROM:25LCxxx U2
U 1 1 5E9B0353
P 5450 6050
F 0 "U2" H 5700 5800 50  0000 C CNN
F 1 "25LC256" H 5200 5800 50  0000 C CNN
F 2 "Package_DIP:DIP-8_W7.62mm_Socket" H 5450 6050 50  0001 C CNN
F 3 "http://ww1.microchip.com/downloads/en/DeviceDoc/21832H.pdf" H 5450 6050 50  0001 C CNN
	1    5450 6050
	1    0    0    -1  
$EndComp
$Comp
L Device:CP C5
U 1 1 5E9B254F
P 9050 5300
F 0 "C5" H 9168 5346 50  0000 L CNN
F 1 "10uF" H 9168 5255 50  0000 L CNN
F 2 "Capacitor_THT:C_Radial_D5.0mm_H5.0mm_P2.00mm" H 9088 5150 50  0001 C CNN
F 3 "~" H 9050 5300 50  0001 C CNN
	1    9050 5300
	1    0    0    -1  
$EndComp
$Comp
L Device:C C4
U 1 1 5E9BCDE0
P 8300 4000
F 0 "C4" V 8552 4000 50  0000 C CNN
F 1 "0.1uF" V 8461 4000 50  0000 C CNN
F 2 "Capacitor_THT:C_Rect_L7.0mm_W2.5mm_P5.00mm" H 8338 3850 50  0001 C CNN
F 3 "~" H 8300 4000 50  0001 C CNN
	1    8300 4000
	0    -1   -1   0   
$EndComp
$Comp
L power:+5V #PWR018
U 1 1 5E9BD47B
P 8050 3950
F 0 "#PWR018" H 8050 3800 50  0001 C CNN
F 1 "+5V" H 8065 4123 50  0000 C CNN
F 2 "" H 8050 3950 50  0001 C CNN
F 3 "" H 8050 3950 50  0001 C CNN
	1    8050 3950
	1    0    0    -1  
$EndComp
Wire Wire Line
	8050 3950 8050 4000
Wire Wire Line
	8050 4000 8050 4050
Connection ~ 8050 4000
$Comp
L power:GND #PWR023
U 1 1 5E9BE0C4
P 8550 4000
F 0 "#PWR023" H 8550 3750 50  0001 C CNN
F 1 "GND" H 8555 3827 50  0000 C CNN
F 2 "" H 8550 4000 50  0001 C CNN
F 3 "" H 8550 4000 50  0001 C CNN
	1    8550 4000
	1    0    0    -1  
$EndComp
$Comp
L power:GND #PWR012
U 1 1 5E9BE861
P 6850 4950
F 0 "#PWR012" H 6850 4700 50  0001 C CNN
F 1 "GND" H 6855 4777 50  0000 C CNN
F 2 "" H 6850 4950 50  0001 C CNN
F 3 "" H 6850 4950 50  0001 C CNN
	1    6850 4950
	1    0    0    -1  
$EndComp
$Comp
L Device:C C2
U 1 1 5E9BEDFF
P 6850 4750
F 0 "C2" H 6965 4796 50  0000 L CNN
F 1 "0.1uF" H 6965 4705 50  0000 L CNN
F 2 "Capacitor_THT:C_Rect_L7.0mm_W2.5mm_P5.00mm" H 6888 4600 50  0001 C CNN
F 3 "~" H 6850 4750 50  0001 C CNN
	1    6850 4750
	1    0    0    -1  
$EndComp
$Comp
L power:+3.3V #PWR011
U 1 1 5E9BF4BA
P 6850 4500
F 0 "#PWR011" H 6850 4350 50  0001 C CNN
F 1 "+3.3V" H 6865 4673 50  0000 C CNN
F 2 "" H 6850 4500 50  0001 C CNN
F 3 "" H 6850 4500 50  0001 C CNN
	1    6850 4500
	1    0    0    -1  
$EndComp
Wire Wire Line
	6850 4550 6850 4500
Wire Wire Line
	6850 4600 6850 4550
Connection ~ 6850 4550
Wire Wire Line
	6850 4900 6850 4950
$Comp
L power:GND #PWR019
U 1 1 5E9C0B64
P 8050 4900
F 0 "#PWR019" H 8050 4650 50  0001 C CNN
F 1 "GND" H 8055 4727 50  0000 C CNN
F 2 "" H 8050 4900 50  0001 C CNN
F 3 "" H 8050 4900 50  0001 C CNN
	1    8050 4900
	1    0    0    -1  
$EndComp
Wire Wire Line
	8050 4850 8050 4900
Wire Wire Line
	8550 4550 9100 4550
$Comp
L Device:R R2
U 1 1 5E9C628D
P 9100 4400
F 0 "R2" H 9170 4446 50  0000 L CNN
F 1 "120" H 9170 4355 50  0000 L CNN
F 2 "Resistor_THT:R_Axial_DIN0309_L9.0mm_D3.2mm_P12.70mm_Horizontal" V 9030 4400 50  0001 C CNN
F 3 "~" H 9100 4400 50  0001 C CNN
	1    9100 4400
	1    0    0    -1  
$EndComp
Connection ~ 9100 4550
Wire Wire Line
	9100 4550 9650 4550
$Comp
L Device:Jumper_NC_Small JP1
U 1 1 5E9C71ED
P 9100 4100
F 0 "JP1" V 9100 4175 50  0000 L CNN
F 1 "Jumper_NC_Small" V 9145 4174 50  0001 L CNN
F 2 "Connector_PinHeader_2.54mm:PinHeader_1x02_P2.54mm_Vertical" H 9100 4100 50  0001 C CNN
F 3 "~" H 9100 4100 50  0001 C CNN
	1    9100 4100
	0    1    1    0   
$EndComp
Wire Wire Line
	9100 4200 9100 4250
Wire Wire Line
	8550 4350 8800 4350
Wire Wire Line
	8800 4350 8800 4000
Wire Wire Line
	8800 4000 9100 4000
Wire Wire Line
	9100 4000 9550 4000
Wire Wire Line
	9550 4000 9550 4450
Wire Wire Line
	9550 4450 9650 4450
Connection ~ 9100 4000
$Comp
L power:GND #PWR027
U 1 1 5E9C8BE6
P 9500 5250
F 0 "#PWR027" H 9500 5000 50  0001 C CNN
F 1 "GND" H 9505 5077 50  0000 C CNN
F 2 "" H 9500 5250 50  0001 C CNN
F 3 "" H 9500 5250 50  0001 C CNN
	1    9500 5250
	1    0    0    -1  
$EndComp
Wire Wire Line
	9650 5050 9500 5050
Wire Wire Line
	9500 5050 9500 5250
Wire Wire Line
	9650 4650 9500 4650
Wire Wire Line
	9500 4650 9500 5050
Connection ~ 9500 5050
NoConn ~ 9650 4750
NoConn ~ 9650 4850
NoConn ~ 9650 4950
$Comp
L power:GND #PWR06
U 1 1 5E9E1748
P 4050 3050
F 0 "#PWR06" H 4050 2800 50  0001 C CNN
F 1 "GND" H 4055 2877 50  0000 C CNN
F 2 "" H 4050 3050 50  0001 C CNN
F 3 "" H 4050 3050 50  0001 C CNN
	1    4050 3050
	1    0    0    -1  
$EndComp
$Comp
L power:GND #PWR04
U 1 1 5E9E20B4
P 3700 5050
F 0 "#PWR04" H 3700 4800 50  0001 C CNN
F 1 "GND" H 3705 4877 50  0000 C CNN
F 2 "" H 3700 5050 50  0001 C CNN
F 3 "" H 3700 5050 50  0001 C CNN
	1    3700 5050
	1    0    0    -1  
$EndComp
Wire Wire Line
	3450 4900 3700 4900
Wire Wire Line
	3700 4900 3700 5050
$Comp
L power:+5V #PWR05
U 1 1 5E9E2BE4
P 3800 4850
F 0 "#PWR05" H 3800 4700 50  0001 C CNN
F 1 "+5V" H 3815 5023 50  0000 C CNN
F 2 "" H 3800 4850 50  0001 C CNN
F 3 "" H 3800 4850 50  0001 C CNN
	1    3800 4850
	1    0    0    -1  
$EndComp
Wire Wire Line
	3450 5000 3800 5000
Wire Wire Line
	3800 5000 3800 4850
$Comp
L power:+3.3V #PWR01
U 1 1 5E9E43F1
P 2250 2750
F 0 "#PWR01" H 2250 2600 50  0001 C CNN
F 1 "+3.3V" H 2265 2923 50  0000 C CNN
F 2 "" H 2250 2750 50  0001 C CNN
F 3 "" H 2250 2750 50  0001 C CNN
	1    2250 2750
	1    0    0    -1  
$EndComp
Wire Wire Line
	2550 2900 2250 2900
Wire Wire Line
	2250 2900 2250 2750
$Comp
L power:GND #PWR02
U 1 1 5E9E4F75
P 2250 3050
F 0 "#PWR02" H 2250 2800 50  0001 C CNN
F 1 "GND" H 2255 2877 50  0000 C CNN
F 2 "" H 2250 3050 50  0001 C CNN
F 3 "" H 2250 3050 50  0001 C CNN
	1    2250 3050
	1    0    0    -1  
$EndComp
Wire Wire Line
	2550 3000 2250 3000
Wire Wire Line
	2250 3000 2250 3050
Wire Wire Line
	9650 5150 9050 5150
$Comp
L power:+5V #PWR025
U 1 1 5E9ED356
P 9050 5100
F 0 "#PWR025" H 9050 4950 50  0001 C CNN
F 1 "+5V" H 9065 5273 50  0000 C CNN
F 2 "" H 9050 5100 50  0001 C CNN
F 3 "" H 9050 5100 50  0001 C CNN
	1    9050 5100
	1    0    0    -1  
$EndComp
Wire Wire Line
	9050 5100 9050 5150
Connection ~ 9050 5150
$Comp
L power:GND #PWR026
U 1 1 5E9EDE09
P 9050 5450
F 0 "#PWR026" H 9050 5200 50  0001 C CNN
F 1 "GND" H 9055 5277 50  0000 C CNN
F 2 "" H 9050 5450 50  0001 C CNN
F 3 "" H 9050 5450 50  0001 C CNN
	1    9050 5450
	1    0    0    -1  
$EndComp
$Comp
L power:GND #PWR08
U 1 1 5E9F51B4
P 5450 6350
F 0 "#PWR08" H 5450 6100 50  0001 C CNN
F 1 "GND" H 5455 6177 50  0000 C CNN
F 2 "" H 5450 6350 50  0001 C CNN
F 3 "" H 5450 6350 50  0001 C CNN
	1    5450 6350
	1    0    0    -1  
$EndComp
$Comp
L power:+3.3V #PWR07
U 1 1 5E9F5D31
P 5450 5650
F 0 "#PWR07" H 5450 5500 50  0001 C CNN
F 1 "+3.3V" H 5465 5823 50  0000 C CNN
F 2 "" H 5450 5650 50  0001 C CNN
F 3 "" H 5450 5650 50  0001 C CNN
	1    5450 5650
	1    0    0    -1  
$EndComp
$Comp
L Device:C C1
U 1 1 5E9F67B3
P 5700 5700
F 0 "C1" V 5952 5700 50  0000 C CNN
F 1 "0.1uF" V 5861 5700 50  0000 C CNN
F 2 "Capacitor_THT:C_Rect_L7.0mm_W2.5mm_P5.00mm" H 5738 5550 50  0001 C CNN
F 3 "~" H 5700 5700 50  0001 C CNN
	1    5700 5700
	0    -1   -1   0   
$EndComp
$Comp
L power:GND #PWR09
U 1 1 5E9F6BB4
P 5950 5700
F 0 "#PWR09" H 5950 5450 50  0001 C CNN
F 1 "GND" H 5955 5527 50  0000 C CNN
F 2 "" H 5950 5700 50  0001 C CNN
F 3 "" H 5950 5700 50  0001 C CNN
	1    5950 5700
	1    0    0    -1  
$EndComp
Wire Wire Line
	5450 5650 5450 5700
Wire Wire Line
	5550 5700 5450 5700
Connection ~ 5450 5700
Wire Wire Line
	5450 5700 5450 5750
Wire Wire Line
	5850 5700 5950 5700
Text GLabel 7550 4250 0    50   Input ~ 0
CAN_TXD
Text GLabel 7550 4350 0    50   Input ~ 0
CAN_RXD
Text GLabel 7550 4650 0    50   Input ~ 0
CAN_STBY
Wire Wire Line
	6850 4550 7550 4550
$Comp
L Switch:SW_Push SW1
U 1 1 5EACA953
P 5800 2200
F 0 "SW1" H 5800 2393 50  0000 C CNN
F 1 "SW_Push" H 5800 2394 50  0001 C CNN
F 2 "custom:D6_key_switch" H 5800 2400 50  0001 C CNN
F 3 "~" H 5800 2400 50  0001 C CNN
	1    5800 2200
	1    0    0    -1  
$EndComp
$Comp
L Switch:SW_Push SW2
U 1 1 5EACB14D
P 5800 2550
F 0 "SW2" H 5800 2743 50  0000 C CNN
F 1 "SW_Push" H 5800 2744 50  0001 C CNN
F 2 "custom:D6_key_switch" H 5800 2750 50  0001 C CNN
F 3 "~" H 5800 2750 50  0001 C CNN
	1    5800 2550
	1    0    0    -1  
$EndComp
$Comp
L Switch:SW_Push SW3
U 1 1 5EACB567
P 5800 2900
F 0 "SW3" H 5800 3093 50  0000 C CNN
F 1 "SW_Push" H 5800 3094 50  0001 C CNN
F 2 "custom:D6_key_switch" H 5800 3100 50  0001 C CNN
F 3 "~" H 5800 3100 50  0001 C CNN
	1    5800 2900
	1    0    0    -1  
$EndComp
$Comp
L Switch:SW_Push SW4
U 1 1 5EACBA13
P 5800 3250
F 0 "SW4" H 5800 3443 50  0000 C CNN
F 1 "SW_Push" H 5800 3444 50  0001 C CNN
F 2 "custom:D6_key_switch" H 5800 3450 50  0001 C CNN
F 3 "~" H 5800 3450 50  0001 C CNN
	1    5800 3250
	1    0    0    -1  
$EndComp
$Comp
L Switch:SW_Push SW5
U 1 1 5EACBE51
P 5800 3600
F 0 "SW5" H 5800 3793 50  0000 C CNN
F 1 "SW_Push" H 5800 3794 50  0001 C CNN
F 2 "custom:D6_key_switch" H 5800 3800 50  0001 C CNN
F 3 "~" H 5800 3800 50  0001 C CNN
	1    5800 3600
	1    0    0    -1  
$EndComp
$Comp
L Switch:SW_Push SW6
U 1 1 5EACC266
P 5800 3950
F 0 "SW6" H 5800 4143 50  0000 C CNN
F 1 "SW_Push" H 5800 4144 50  0001 C CNN
F 2 "custom:D6_key_switch" H 5800 4150 50  0001 C CNN
F 3 "~" H 5800 4150 50  0001 C CNN
	1    5800 3950
	1    0    0    -1  
$EndComp
Text GLabel 2200 4000 0    50   Input ~ 0
CAN_RXD
Text GLabel 2200 4100 0    50   Input ~ 0
CAN_TXD
Wire Wire Line
	2200 4000 2550 4000
Wire Wire Line
	2200 4100 2550 4100
Text Label 2350 4000 0    50   ~ 0
PB8
Text Label 2350 4100 0    50   ~ 0
PB9
Text GLabel 5550 2200 0    50   Input ~ 0
KEY1
Text GLabel 5550 2550 0    50   Input ~ 0
KEY2
Text GLabel 5550 2900 0    50   Input ~ 0
KEY3
Text GLabel 5550 3250 0    50   Input ~ 0
KEY4
Text GLabel 5550 3600 0    50   Input ~ 0
KEY5
Text GLabel 5550 3950 0    50   Input ~ 0
KEY6
Wire Wire Line
	5550 2200 5600 2200
Wire Wire Line
	5550 2550 5600 2550
Wire Wire Line
	5550 2900 5600 2900
$Comp
L power:GND #PWR010
U 1 1 5EADA13C
P 6050 4050
F 0 "#PWR010" H 6050 3800 50  0001 C CNN
F 1 "GND" H 6055 3877 50  0000 C CNN
F 2 "" H 6050 4050 50  0001 C CNN
F 3 "" H 6050 4050 50  0001 C CNN
	1    6050 4050
	1    0    0    -1  
$EndComp
Wire Wire Line
	6000 2200 6050 2200
Wire Wire Line
	6050 2200 6050 2550
Wire Wire Line
	6000 2550 6050 2550
Connection ~ 6050 2550
Wire Wire Line
	6050 2550 6050 2900
Wire Wire Line
	6000 2900 6050 2900
Connection ~ 6050 2900
$Comp
L power:GND #PWR021
U 1 1 5EAE15E5
P 8100 3100
F 0 "#PWR021" H 8100 2850 50  0001 C CNN
F 1 "GND" H 8105 2927 50  0000 C CNN
F 2 "" H 8100 3100 50  0001 C CNN
F 3 "" H 8100 3100 50  0001 C CNN
	1    8100 3100
	1    0    0    -1  
$EndComp
Wire Wire Line
	8050 3050 8100 3050
Wire Wire Line
	8100 3050 8100 3100
Text GLabel 8150 2850 2    50   Input ~ 0
KEY_RE
Wire Wire Line
	8050 2850 8150 2850
$Comp
L power:GND #PWR015
U 1 1 5EAE491D
P 7350 3150
F 0 "#PWR015" H 7350 2900 50  0001 C CNN
F 1 "GND" H 7355 2977 50  0000 C CNN
F 2 "" H 7350 3150 50  0001 C CNN
F 3 "" H 7350 3150 50  0001 C CNN
	1    7350 3150
	1    0    0    -1  
$EndComp
Wire Wire Line
	7450 2950 7350 2950
Wire Wire Line
	7350 2950 7350 3150
Text GLabel 7250 2850 0    50   Input ~ 0
RE_A
Text GLabel 7250 3050 0    50   Input ~ 0
RE_B
Wire Wire Line
	7250 2850 7450 2850
Wire Wire Line
	7250 3050 7450 3050
Text GLabel 6100 5950 2    50   Input ~ 0
SPI_SCK
Text GLabel 6100 6050 2    50   Input ~ 0
SPI_MOSI
Text GLabel 6100 6150 2    50   Input ~ 0
SPI_MISO
Wire Wire Line
	5850 5950 6100 5950
Wire Wire Line
	5850 6050 6100 6050
Wire Wire Line
	5850 6150 6100 6150
Text GLabel 4550 6150 0    50   Input ~ 0
EEPROM_CS
Wire Wire Line
	5050 5950 5050 5700
Wire Wire Line
	5050 5700 5450 5700
Wire Wire Line
	5050 6050 5050 5950
Connection ~ 5050 5950
Text GLabel 3700 3500 2    50   Input ~ 0
EEPROM_CS
Text Label 3500 3500 0    50   ~ 0
PA4
Wire Wire Line
	3450 3500 3700 3500
Text GLabel 2200 4200 0    50   Input ~ 0
SPI_SCK
Wire Wire Line
	2200 4200 2550 4200
Text Label 2350 4200 0    50   ~ 0
PA5
Text GLabel 2200 3800 0    50   Input ~ 0
SPI_MISO
Wire Wire Line
	2200 3800 2550 3800
Text Label 2350 3800 0    50   ~ 0
PA6
Text GLabel 2200 4600 0    50   Input ~ 0
SPI_MOSI
Wire Wire Line
	2200 4600 2550 4600
Text Label 2350 4600 0    50   ~ 0
PA7
Text GLabel 2200 2800 0    50   Input ~ 0
UART1_TX
Wire Wire Line
	2200 2800 2550 2800
Text Label 2350 2800 0    50   ~ 0
PA9
$Comp
L custom:NHD-0216K3Z-NSW-BBW-V3 U5
U 1 1 5EB1D83D
P 9000 1550
F 0 "U5" H 9528 1596 50  0000 L CNN
F 1 "NHD-0216K3Z-NSW-BBW-V3" H 9528 1505 50  0000 L CNN
F 2 "custom:NHD-0216K3Z-NSW-BBW-V3" H 9000 1550 50  0001 C CNN
F 3 "" H 9000 1550 50  0001 C CNN
	1    9000 1550
	1    0    0    -1  
$EndComp
$Comp
L power:GND #PWR024
U 1 1 5EB1E243
P 8800 1750
F 0 "#PWR024" H 8800 1500 50  0001 C CNN
F 1 "GND" H 8805 1577 50  0000 C CNN
F 2 "" H 8800 1750 50  0001 C CNN
F 3 "" H 8800 1750 50  0001 C CNN
	1    8800 1750
	1    0    0    -1  
$EndComp
Wire Wire Line
	8900 1550 8800 1550
Wire Wire Line
	8800 1550 8800 1750
$Comp
L power:+5V #PWR022
U 1 1 5EB20D00
P 8550 1050
F 0 "#PWR022" H 8550 900 50  0001 C CNN
F 1 "+5V" H 8565 1223 50  0000 C CNN
F 2 "" H 8550 1050 50  0001 C CNN
F 3 "" H 8550 1050 50  0001 C CNN
	1    8550 1050
	1    0    0    -1  
$EndComp
Wire Wire Line
	8550 1050 8550 1100
Wire Wire Line
	8550 1650 8900 1650
Wire Wire Line
	8400 1450 8700 1450
$Comp
L Device:R R1
U 1 1 5EB2D724
P 8700 1250
F 0 "R1" H 8770 1296 50  0000 L CNN
F 1 "100k" H 8770 1205 50  0000 L CNN
F 2 "Resistor_THT:R_Axial_DIN0207_L6.3mm_D2.5mm_P10.16mm_Horizontal" V 8630 1250 50  0001 C CNN
F 3 "~" H 8700 1250 50  0001 C CNN
	1    8700 1250
	1    0    0    -1  
$EndComp
Wire Wire Line
	8700 1400 8700 1450
Connection ~ 8700 1450
Wire Wire Line
	8700 1450 8900 1450
Wire Wire Line
	8700 1100 8550 1100
Connection ~ 8550 1100
Wire Wire Line
	8550 1100 8550 1650
$Comp
L custom:74HCT125 U3
U 1 1 5EB4BBE8
P 7350 1350
F 0 "U3" H 7350 1915 50  0000 C CNN
F 1 "74HCT125" H 7350 1824 50  0000 C CNN
F 2 "Package_DIP:DIP-14_W7.62mm_Socket" H 7400 1300 50  0001 C CNN
F 3 "" H 7400 1300 50  0001 C CNN
	1    7350 1350
	1    0    0    -1  
$EndComp
$Comp
L power:GND #PWR014
U 1 1 5EB4C6F9
P 6950 1700
F 0 "#PWR014" H 6950 1450 50  0001 C CNN
F 1 "GND" H 6955 1527 50  0000 C CNN
F 2 "" H 6950 1700 50  0001 C CNN
F 3 "" H 6950 1700 50  0001 C CNN
	1    6950 1700
	1    0    0    -1  
$EndComp
Wire Wire Line
	7000 1650 6950 1650
Wire Wire Line
	6950 1650 6950 1700
$Comp
L power:+5V #PWR016
U 1 1 5EB4F232
P 7750 750
F 0 "#PWR016" H 7750 600 50  0001 C CNN
F 1 "+5V" H 7765 923 50  0000 C CNN
F 2 "" H 7750 750 50  0001 C CNN
F 3 "" H 7750 750 50  0001 C CNN
	1    7750 750 
	1    0    0    -1  
$EndComp
Wire Wire Line
	7700 1050 7750 1050
$Comp
L Device:C C3
U 1 1 5EB5674F
P 7900 950
F 0 "C3" V 7648 950 50  0000 C CNN
F 1 "0.1uF" V 7739 950 50  0000 C CNN
F 2 "Capacitor_THT:C_Rect_L7.0mm_W2.5mm_P5.00mm" H 7938 800 50  0001 C CNN
F 3 "~" H 7900 950 50  0001 C CNN
	1    7900 950 
	0    1    1    0   
$EndComp
Connection ~ 7750 950 
Wire Wire Line
	7750 950  7750 1050
$Comp
L power:GND #PWR020
U 1 1 5EB56E47
P 8100 1000
F 0 "#PWR020" H 8100 750 50  0001 C CNN
F 1 "GND" H 8105 827 50  0000 C CNN
F 2 "" H 8100 1000 50  0001 C CNN
F 3 "" H 8100 1000 50  0001 C CNN
	1    8100 1000
	1    0    0    -1  
$EndComp
Wire Wire Line
	8050 950  8100 950 
Wire Wire Line
	8100 950  8100 1000
Wire Wire Line
	8400 1450 8400 1650
Wire Wire Line
	8400 1650 7700 1650
Text GLabel 7800 1550 2    50   Input ~ 0
UART1_TX
Wire Wire Line
	7700 1550 7800 1550
$Comp
L power:GND #PWR017
U 1 1 5EB60EB6
P 7750 1750
F 0 "#PWR017" H 7750 1500 50  0001 C CNN
F 1 "GND" H 7755 1577 50  0000 C CNN
F 2 "" H 7750 1750 50  0001 C CNN
F 3 "" H 7750 1750 50  0001 C CNN
	1    7750 1750
	1    0    0    -1  
$EndComp
Wire Wire Line
	7700 1450 7750 1450
Wire Wire Line
	7750 1450 7750 1750
Wire Wire Line
	7700 1150 7750 1150
Wire Wire Line
	7750 1150 7750 1050
Connection ~ 7750 1050
Wire Wire Line
	7700 1250 7750 1250
Wire Wire Line
	7750 1250 7750 1150
Connection ~ 7750 1150
NoConn ~ 7700 1350
NoConn ~ 7000 1550
NoConn ~ 7000 1250
$Comp
L power:+5V #PWR013
U 1 1 5EB73A59
P 6900 900
F 0 "#PWR013" H 6900 750 50  0001 C CNN
F 1 "+5V" H 6915 1073 50  0000 C CNN
F 2 "" H 6900 900 50  0001 C CNN
F 3 "" H 6900 900 50  0001 C CNN
	1    6900 900 
	1    0    0    -1  
$EndComp
Wire Wire Line
	6900 900  6900 1050
Wire Wire Line
	6900 1050 7000 1050
Wire Wire Line
	6900 1050 6900 1150
Wire Wire Line
	6900 1150 7000 1150
Connection ~ 6900 1050
Wire Wire Line
	6900 1150 6900 1350
Wire Wire Line
	6900 1350 7000 1350
Connection ~ 6900 1150
Wire Wire Line
	6900 1350 6900 1450
Wire Wire Line
	6900 1450 7000 1450
Connection ~ 6900 1350
Text GLabel 3700 3800 2    50   Input ~ 0
KEY1
$Comp
L power:+3.3V #PWR03
U 1 1 5E9E0CB6
P 3600 2850
F 0 "#PWR03" H 3600 2700 50  0001 C CNN
F 1 "+3.3V" H 3615 3023 50  0000 C CNN
F 2 "" H 3600 2850 50  0001 C CNN
F 3 "" H 3600 2850 50  0001 C CNN
	1    3600 2850
	1    0    0    -1  
$EndComp
Wire Wire Line
	3450 2900 3600 2900
Wire Wire Line
	3600 2900 3600 2850
Text GLabel 3700 4000 2    50   Input ~ 0
KEY4
Wire Wire Line
	4050 3000 4050 3050
Wire Wire Line
	3450 3000 4050 3000
Text GLabel 2200 5000 0    50   Input ~ 0
KEY3
Wire Wire Line
	2200 5000 2550 5000
Text Label 2350 5000 0    50   ~ 0
PB1
Text GLabel 2200 3600 0    50   Input ~ 0
KEY6
Text GLabel 3700 3100 2    50   Input ~ 0
KEY5
Wire Wire Line
	3700 3100 3450 3100
Text Label 3500 3100 0    50   ~ 0
PA2
Text GLabel 3700 3300 2    50   Input ~ 0
KEY2
Wire Wire Line
	3450 3300 3700 3300
Text Label 3500 3300 0    50   ~ 0
PC3
Text GLabel 2200 3700 0    50   Input ~ 0
RE_A
Text GLabel 2200 3900 0    50   Input ~ 0
RE_B
Text GLabel 3700 3900 2    50   Input ~ 0
KEY_RE
Wire Wire Line
	3700 3900 3450 3900
Text Label 3500 3900 0    50   ~ 0
PB11
Wire Wire Line
	2200 3700 2550 3700
Text Label 2350 3700 0    50   ~ 0
PB6
Wire Wire Line
	2200 3900 2550 3900
Text Label 2350 3900 0    50   ~ 0
PB7
Wire Wire Line
	3450 3800 3700 3800
Text Label 3500 3800 0    50   ~ 0
PB10
Wire Wire Line
	3700 4000 3450 4000
Text Label 3500 4000 0    50   ~ 0
PB13
Wire Wire Line
	2200 3600 2550 3600
Text Label 2350 3600 0    50   ~ 0
PB5
Text GLabel 2200 4300 0    50   Input ~ 0
CAN_STBY
Wire Wire Line
	2200 4300 2550 4300
Text Label 2350 4300 0    50   ~ 0
PC0
Wire Wire Line
	7750 750  7750 950 
Wire Wire Line
	8050 4000 8150 4000
Wire Wire Line
	8450 4000 8550 4000
Wire Wire Line
	6050 2900 6050 3250
Wire Wire Line
	5550 3250 5600 3250
Wire Wire Line
	5550 3600 5600 3600
Wire Wire Line
	5550 3950 5600 3950
Wire Wire Line
	6000 3250 6050 3250
Connection ~ 6050 3250
Wire Wire Line
	6050 3250 6050 3600
Wire Wire Line
	6000 3600 6050 3600
Connection ~ 6050 3600
Wire Wire Line
	6050 3600 6050 3950
Wire Wire Line
	6000 3950 6050 3950
Connection ~ 6050 3950
Wire Wire Line
	6050 3950 6050 4050
$Comp
L Device:R R3
U 1 1 5EC905E0
P 4750 5950
F 0 "R3" H 4820 5996 50  0000 L CNN
F 1 "10k" H 4820 5905 50  0000 L CNN
F 2 "Resistor_THT:R_Axial_DIN0309_L9.0mm_D3.2mm_P12.70mm_Horizontal" V 4680 5950 50  0001 C CNN
F 3 "~" H 4750 5950 50  0001 C CNN
	1    4750 5950
	1    0    0    -1  
$EndComp
Wire Wire Line
	4750 5800 4750 5700
Wire Wire Line
	4750 5700 5050 5700
Connection ~ 5050 5700
Wire Wire Line
	4550 6150 4750 6150
Wire Wire Line
	4750 6100 4750 6150
Connection ~ 4750 6150
Wire Wire Line
	4750 6150 5050 6150
NoConn ~ 2550 2500
NoConn ~ 2550 2600
NoConn ~ 2550 2700
NoConn ~ 2550 3100
NoConn ~ 2550 3200
NoConn ~ 2550 3300
NoConn ~ 2550 3400
NoConn ~ 2550 3500
NoConn ~ 2550 4400
NoConn ~ 2550 4500
NoConn ~ 2550 4700
NoConn ~ 2550 4800
NoConn ~ 2550 4900
NoConn ~ 3450 2500
NoConn ~ 3450 2600
NoConn ~ 3450 2700
NoConn ~ 3450 2800
NoConn ~ 3450 3200
NoConn ~ 3450 3400
NoConn ~ 3450 3600
NoConn ~ 3450 3700
NoConn ~ 3450 4100
NoConn ~ 3450 4200
NoConn ~ 3450 4300
NoConn ~ 3450 4400
NoConn ~ 3450 4500
NoConn ~ 3450 4600
NoConn ~ 3450 4700
NoConn ~ 3450 4800
$EndSCHEMATC
